<!DOCTYPE svg PUBLIC "-//W3C//DTD SVG 1.1//EN" "http://www.w3.org/Graphics/SVG/1.1/DTD/svg11.dtd">
<svg xmlns='http://www.w3.org/2000/svg' xmlns:xlink='http://www.w3.org/1999/xlink'
     xmlns:jfreesvg='http://www.jfree.org/jfreesvg/svg' width='222.0' height='222.0'>
  <rect x='0.0' y='0.0' width='222.0' height='222.0' style='fill:rgb(255,255,255)'/>
  <ellipse cx='22.0' cy='22.0' rx='5.0' ry='5.0' style='fill:rgb(0,0,0)'/>
  <line x1='22.0' y1='22.0' x2='22.0' y2='42.0'
        style='stroke-width:2.0;stroke:rgb(0,0,0);stroke-opacity:1.0;stroke-linecap:square;stroke-miterlimit:10.0'/>
  <ellipse cx='22.0' cy='42.0' rx='5.0' ry='5.0' style='fill:rgb(0,0,0)'/>
  <line x1='22.0' y1='42.0' x2='22.0' y2='62.0'
        style='stroke-width:2.0;stroke:rgb(0,0,0);stroke-opacity:1.0;stroke-linecap:square;stroke-miterlimit:10.0'/>
  <line x1='22.0' y1='42.0' x2='42.0' y2='42.0'
        style='stroke-width:2.0;stroke:rgb(0,0,0);stroke-opacity:1.0;stroke-linecap:square;stroke-miterlimit:10.0'/>
  <ellipse cx='22.0' cy='62.0' rx='5.0' ry='5.0' style='fill:rgb(0,0,0)'/>
  <line x1='22.0' y1='62.0' x2='42.0' y2='62.0'
        style='stroke-width:2.0;stroke:rgb(0,0,0);stroke-opacity:1.0;stroke-linecap:square;stroke-miterlimit:10.0'/>
  <ellipse cx='22.0' cy='82.0' rx='5.0' ry='5.0' style='fill:rgb(0,0,0)'/>
  <line x1='22.0' y1='82.0' x2='22.0' y2='102.0'
        style='stroke-width:2.0;stroke:rgb(0,0,0);stroke-opacity:1.0;stroke-linecap:square;stroke-miterlimit:10.0'/>
  <ellipse cx='22.0' cy='102.0' rx='5.0' ry='5.0' style='fill:rgb(0,0,0)'/>
  <line x1='22.0' y1='102.0' x2='42.0' y2='102.0'
        style='stroke-width:2.0;stroke:rgb(0,0,0);stroke-opacity:1.0;stroke-linecap:square;stroke-miterlimit:10.0'/>
  <ellipse cx='22.0' cy='122.0' rx='5.0' ry='5.0' style='fill:rgb(0,0,0)'/>
  <line x1='22.0' y1='122.0' x2='42.0' y2='122.0'
        style='stroke-width:2.0;stroke:rgb(0,0,0);stroke-opacity:1.0;stroke-linecap:square;stroke-miterlimit:10.0'/>
  <ellipse cx='22.0' cy='142.0' rx='5.0' ry='5.0' style='fill:rgb(0,0,0)'/>
  <line x1='22.0' y1='142.0' x2='22.0' y2='162.0'
        style='stroke-width:2.0;stroke:rgb(0,0,0);stroke-opacity:1.0;stroke-linecap:square;stroke-miterlimit:10.0'/>
  <line x1='22.0' y1='142.0' x2='42.0' y2='142.0'
        style='stroke-width:2.0;stroke:rgb(0,0,0);stroke-opacity:1.0;stroke-linecap:square;stroke-miterlimit:10.0'/>
  <ellipse cx='22.0' cy='162.0' rx='5.0' ry='5.0' style='fill:rgb(0,0,0)'/>
  <line x1='22.0' y1='162.0' x2='22.0' y2='182.0'
        style='stroke-width:2.0;stroke:rgb(0,0,0);stroke-opacity:1.0;stroke-linecap:square;stroke-miterlimit:10.0'/>
  <ellipse cx='22.0' cy='182.0' rx='5.0' ry='5.0' style='fill:rgb(0,0,0)'/>
  <ellipse cx='22.0' cy='202.0' rx='5.0' ry='5.0' style='fill:rgb(0,0,0)'/>
  <line x1='22.0' y1='202.0' x2='42.0' y2='202.0'
        style='stroke-width:2.0;stroke:rgb(0,0,0);stroke-opacity:1.0;stroke-linecap:square;stroke-miterlimit:10.0'/>
  <ellipse cx='42.0' cy='22.0' rx='5.0' ry='5.0' style='fill:rgb(0,0,0)'/>
  <line x1='42.0' y1='22.0' x2='62.0' y2='22.0'
        style='stroke-width:2.0;stroke:rgb(0,0,0);stroke-opacity:1.0;stroke-linecap:square;stroke-miterlimit:10.0'/>
  <ellipse cx='42.0' cy='42.0' rx='5.0' ry='5.0' style='fill:rgb(0,0,0)'/>
  <ellipse cx='42.0' cy='62.0' rx='5.0' ry='5.0' style='fill:rgb(0,0,0)'/>
  <line x1='42.0' y1='62.0' x2='42.0' y2='82.0'
        style='stroke-width:2.0;stroke:rgb(0,0,0);stroke-opacity:1.0;stroke-linecap:square;stroke-miterlimit:10.0'/>
  <ellipse cx='42.0' cy='82.0' rx='5.0' ry='5.0' style='fill:rgb(0,0,0)'/>
  <line x1='42.0' y1='82.0' x2='42.0' y2='102.0'
        style='stroke-width:2.0;stroke:rgb(0,0,0);stroke-opacity:1.0;stroke-linecap:square;stroke-miterlimit:10.0'/>
  <line x1='42.0' y1='82.0' x2='62.0' y2='82.0'
        style='stroke-width:2.0;stroke:rgb(0,0,0);stroke-opacity:1.0;stroke-linecap:square;stroke-miterlimit:10.0'/>
  <ellipse cx='42.0' cy='102.0' rx='5.0' ry='5.0' style='fill:rgb(0,0,0)'/>
  <line x1='42.0' y1='102.0' x2='42.0' y2='122.0'
        style='stroke-width:2.0;stroke:rgb(0,0,0);stroke-opacity:1.0;stroke-linecap:square;stroke-miterlimit:10.0'/>
  <ellipse cx='42.0' cy='122.0' rx='5.0' ry='5.0' style='fill:rgb(0,0,0)'/>
  <line x1='42.0' y1='122.0' x2='42.0' y2='142.0'
        style='stroke-width:2.0;stroke:rgb(0,0,0);stroke-opacity:1.0;stroke-linecap:square;stroke-miterlimit:10.0'/>
  <line x1='42.0' y1='122.0' x2='62.0' y2='122.0'
        style='stroke-width:2.0;stroke:rgb(0,0,0);stroke-opacity:1.0;stroke-linecap:square;stroke-miterlimit:10.0'/>
  <ellipse cx='42.0' cy='142.0' rx='5.0' ry='5.0' style='fill:rgb(0,0,0)'/>
  <line x1='42.0' y1='142.0' x2='62.0' y2='142.0'
        style='stroke-width:2.0;stroke:rgb(0,0,0);stroke-opacity:1.0;stroke-linecap:square;stroke-miterlimit:10.0'/>
  <ellipse cx='42.0' cy='162.0' rx='5.0' ry='5.0' style='fill:rgb(0,0,0)'/>
  <line x1='42.0' y1='162.0' x2='62.0' y2='162.0'
        style='stroke-width:2.0;stroke:rgb(0,0,0);stroke-opacity:1.0;stroke-linecap:square;stroke-miterlimit:10.0'/>
  <ellipse cx='42.0' cy='182.0' rx='5.0' ry='5.0' style='fill:rgb(0,0,0)'/>
  <line x1='42.0' y1='182.0' x2='62.0' y2='182.0'
        style='stroke-width:2.0;stroke:rgb(0,0,0);stroke-opacity:1.0;stroke-linecap:square;stroke-miterlimit:10.0'/>
  <ellipse cx='42.0' cy='202.0' rx='5.0' ry='5.0' style='fill:rgb(0,0,0)'/>
  <line x1='42.0' y1='202.0' x2='62.0' y2='202.0'
        style='stroke-width:2.0;stroke:rgb(0,0,0);stroke-opacity:1.0;stroke-linecap:square;stroke-miterlimit:10.0'/>
  <ellipse cx='62.0' cy='22.0' rx='5.0' ry='5.0' style='fill:rgb(0,0,0)'/>
  <line x1='62.0' y1='22.0' x2='62.0' y2='42.0'
        style='stroke-width:2.0;stroke:rgb(0,0,0);stroke-opacity:1.0;stroke-linecap:square;stroke-miterlimit:10.0'/>
  <line x1='62.0' y1='22.0' x2='82.0' y2='22.0'
        style='stroke-width:2.0;stroke:rgb(0,0,0);stroke-opacity:1.0;stroke-linecap:square;stroke-miterlimit:10.0'/>
  <ellipse cx='62.0' cy='42.0' rx='5.0' ry='5.0' style='fill:rgb(0,0,0)'/>
  <line x1='62.0' y1='42.0' x2='62.0' y2='62.0'
        style='stroke-width:2.0;stroke:rgb(0,0,0);stroke-opacity:1.0;stroke-linecap:square;stroke-miterlimit:10.0'/>
  <ellipse cx='62.0' cy='62.0' rx='5.0' ry='5.0' style='fill:rgb(0,0,0)'/>
  <line x1='62.0' y1='62.0' x2='82.0' y2='62.0'
        style='stroke-width:2.0;stroke:rgb(0,0,0);stroke-opacity:1.0;stroke-linecap:square;stroke-miterlimit:10.0'/>
  <ellipse cx='62.0' cy='82.0' rx='5.0' ry='5.0' style='fill:rgb(0,0,0)'/>
  <line x1='62.0' y1='82.0' x2='82.0' y2='82.0'
        style='stroke-width:2.0;stroke:rgb(0,0,0);stroke-opacity:1.0;stroke-linecap:square;stroke-miterlimit:10.0'/>
  <ellipse cx='62.0' cy='102.0' rx='5.0' ry='5.0' style='fill:rgb(0,0,0)'/>
  <line x1='62.0' y1='102.0' x2='62.0' y2='122.0'
        style='stroke-width:2.0;stroke:rgb(0,0,0);stroke-opacity:1.0;stroke-linecap:square;stroke-miterlimit:10.0'/>
  <ellipse cx='62.0' cy='122.0' rx='5.0' ry='5.0' style='fill:rgb(0,0,0)'/>
  <line x1='62.0' y1='122.0' x2='82.0' y2='122.0'
        style='stroke-width:2.0;stroke:rgb(0,0,0);stroke-opacity:1.0;stroke-linecap:square;stroke-miterlimit:10.0'/>
  <ellipse cx='62.0' cy='142.0' rx='5.0' ry='5.0' style='fill:rgb(0,0,0)'/>
  <line x1='62.0' y1='142.0' x2='62.0' y2='162.0'
        style='stroke-width:2.0;stroke:rgb(0,0,0);stroke-opacity:1.0;stroke-linecap:square;stroke-miterlimit:10.0'/>
  <ellipse cx='62.0' cy='162.0' rx='5.0' ry='5.0' style='fill:rgb(0,0,0)'/>
  <line x1='62.0' y1='162.0' x2='62.0' y2='182.0'
        style='stroke-width:2.0;stroke:rgb(0,0,0);stroke-opacity:1.0;stroke-linecap:square;stroke-miterlimit:10.0'/>
  <ellipse cx='62.0' cy='182.0' rx='5.0' ry='5.0' style='fill:rgb(0,0,0)'/>
  <line x1='62.0' y1='182.0' x2='62.0' y2='202.0'
        style='stroke-width:2.0;stroke:rgb(0,0,0);stroke-opacity:1.0;stroke-linecap:square;stroke-miterlimit:10.0'/>
  <line x1='62.0' y1='182.0' x2='82.0' y2='182.0'
        style='stroke-width:2.0;stroke:rgb(0,0,0);stroke-opacity:1.0;stroke-linecap:square;stroke-miterlimit:10.0'/>
  <ellipse cx='62.0' cy='202.0' rx='5.0' ry='5.0' style='fill:rgb(0,0,0)'/>
  <ellipse cx='82.0' cy='22.0' rx='5.0' ry='5.0' style='fill:rgb(0,0,0)'/>
  <line x1='82.0' y1='22.0' x2='102.0' y2='22.0'
        style='stroke-width:2.0;stroke:rgb(0,0,0);stroke-opacity:1.0;stroke-linecap:square;stroke-miterlimit:10.0'/>
  <ellipse cx='82.0' cy='42.0' rx='5.0' ry='5.0' style='fill:rgb(0,0,0)'/>
  <line x1='82.0' y1='42.0' x2='82.0' y2='62.0'
        style='stroke-width:2.0;stroke:rgb(0,0,0);stroke-opacity:1.0;stroke-linecap:square;stroke-miterlimit:10.0'/>
  <ellipse cx='82.0' cy='62.0' rx='5.0' ry='5.0' style='fill:rgb(0,0,0)'/>
  <line x1='82.0' y1='62.0' x2='82.0' y2='82.0'
        style='stroke-width:2.0;stroke:rgb(0,0,0);stroke-opacity:1.0;stroke-linecap:square;stroke-miterlimit:10.0'/>
  <ellipse cx='82.0' cy='82.0' rx='5.0' ry='5.0' style='fill:rgb(0,0,0)'/>
  <ellipse cx='82.0' cy='102.0' rx='5.0' ry='5.0' style='fill:rgb(0,0,0)'/>
  <line x1='82.0' y1='102.0' x2='82.0' y2='122.0'
        style='stroke-width:2.0;stroke:rgb(0,0,0);stroke-opacity:1.0;stroke-linecap:square;stroke-miterlimit:10.0'/>
  <ellipse cx='82.0' cy='122.0' rx='5.0' ry='5.0' style='fill:rgb(0,0,0)'/>
  <line x1='82.0' y1='122.0' x2='82.0' y2='142.0'
        style='stroke-width:2.0;stroke:rgb(0,0,0);stroke-opacity:1.0;stroke-linecap:square;stroke-miterlimit:10.0'/>
  <line x1='82.0' y1='122.0' x2='102.0' y2='122.0'
        style='stroke-width:2.0;stroke:rgb(0,0,0);stroke-opacity:1.0;stroke-linecap:square;stroke-miterlimit:10.0'/>
  <ellipse cx='82.0' cy='142.0' rx='5.0' ry='5.0' style='fill:rgb(0,0,0)'/>
  <line x1='82.0' y1='142.0' x2='82.0' y2='162.0'
        style='stroke-width:2.0;stroke:rgb(0,0,0);stroke-opacity:1.0;stroke-linecap:square;stroke-miterlimit:10.0'/>
  <line x1='82.0' y1='142.0' x2='102.0' y2='142.0'
        style='stroke-width:2.0;stroke:rgb(0,0,0);stroke-opacity:1.0;stroke-linecap:square;stroke-miterlimit:10.0'/>
  <ellipse cx='82.0' cy='162.0' rx='5.0' ry='5.0' style='fill:rgb(0,0,0)'/>
  <line x1='82.0' y1='162.0' x2='102.0' y2='162.0'
        style='stroke-width:2.0;stroke:rgb(0,0,0);stroke-opacity:1.0;stroke-linecap:square;stroke-miterlimit:10.0'/>
  <ellipse cx='82.0' cy='182.0' rx='5.0' ry='5.0' style='fill:rgb(0,0,0)'/>
  <line x1='82.0' y1='182.0' x2='82.0' y2='202.0'
        style='stroke-width:2.0;stroke:rgb(0,0,0);stroke-opacity:1.0;stroke-linecap:square;stroke-miterlimit:10.0'/>
  <ellipse cx='82.0' cy='202.0' rx='5.0' ry='5.0' style='fill:rgb(0,0,0)'/>
  <ellipse cx='102.0' cy='22.0' rx='5.0' ry='5.0' style='fill:rgb(0,0,0)'/>
  <line x1='102.0' y1='22.0' x2='102.0' y2='42.0'
        style='stroke-width:2.0;stroke:rgb(0,0,0);stroke-opacity:1.0;stroke-linecap:square;stroke-miterlimit:10.0'/>
  <ellipse cx='102.0' cy='42.0' rx='5.0' ry='5.0' style='fill:rgb(0,0,0)'/>
  <ellipse cx='102.0' cy='62.0' rx='5.0' ry='5.0' style='fill:rgb(0,0,0)'/>
  <line x1='102.0' y1='62.0' x2='102.0' y2='82.0'
        style='stroke-width:2.0;stroke:rgb(0,0,0);stroke-opacity:1.0;stroke-linecap:square;stroke-miterlimit:10.0'/>
  <ellipse cx='102.0' cy='82.0' rx='5.0' ry='5.0' style='fill:rgb(0,0,0)'/>
  <line x1='102.0' y1='82.0' x2='102.0' y2='102.0'
        style='stroke-width:2.0;stroke:rgb(0,0,0);stroke-opacity:1.0;stroke-linecap:square;stroke-miterlimit:10.0'/>
  <ellipse cx='102.0' cy='102.0' rx='5.0' ry='5.0' style='fill:rgb(0,0,0)'/>
  <line x1='102.0' y1='102.0' x2='122.0' y2='102.0'
        style='stroke-width:2.0;stroke:rgb(0,0,0);stroke-opacity:1.0;stroke-linecap:square;stroke-miterlimit:10.0'/>
  <ellipse cx='102.0' cy='122.0' rx='5.0' ry='5.0' style='fill:rgb(0,0,0)'/>
  <line x1='102.0' y1='122.0' x2='122.0' y2='122.0'
        style='stroke-width:2.0;stroke:rgb(0,0,0);stroke-opacity:1.0;stroke-linecap:square;stroke-miterlimit:10.0'/>
  <ellipse cx='102.0' cy='142.0' rx='5.0' ry='5.0' style='fill:rgb(0,0,0)'/>
  <line x1='102.0' y1='142.0' x2='122.0' y2='142.0'
        style='stroke-width:2.0;stroke:rgb(0,0,0);stroke-opacity:1.0;stroke-linecap:square;stroke-miterlimit:10.0'/>
  <ellipse cx='102.0' cy='162.0' rx='5.0' ry='5.0' style='fill:rgb(0,0,0)'/>
  <ellipse cx='102.0' cy='182.0' rx='5.0' ry='5.0' style='fill:rgb(0,0,0)'/>
  <line x1='102.0' y1='182.0' x2='122.0' y2='182.0'
        style='stroke-width:2.0;stroke:rgb(0,0,0);stroke-opacity:1.0;stroke-linecap:square;stroke-miterlimit:10.0'/>
  <ellipse cx='102.0' cy='202.0' rx='5.0' ry='5.0' style='fill:rgb(0,0,0)'/>
  <line x1='102.0' y1='202.0' x2='122.0' y2='202.0'
        style='stroke-width:2.0;stroke:rgb(0,0,0);stroke-opacity:1.0;stroke-linecap:square;stroke-miterlimit:10.0'/>
  <ellipse cx='122.0' cy='22.0' rx='5.0' ry='5.0' style='fill:rgb(0,0,0)'/>
  <line x1='122.0' y1='22.0' x2='142.0' y2='22.0'
        style='stroke-width:2.0;stroke:rgb(0,0,0);stroke-opacity:1.0;stroke-linecap:square;stroke-miterlimit:10.0'/>
  <ellipse cx='122.0' cy='42.0' rx='5.0' ry='5.0' style='fill:rgb(0,0,0)'/>
  <line x1='122.0' y1='42.0' x2='122.0' y2='62.0'
        style='stroke-width:2.0;stroke:rgb(0,0,0);stroke-opacity:1.0;stroke-linecap:square;stroke-miterlimit:10.0'/>
  <ellipse cx='122.0' cy='62.0' rx='5.0' ry='5.0' style='fill:rgb(0,0,0)'/>
  <line x1='122.0' y1='62.0' x2='122.0' y2='82.0'
        style='stroke-width:2.0;stroke:rgb(0,0,0);stroke-opacity:1.0;stroke-linecap:square;stroke-miterlimit:10.0'/>
  <line x1='122.0' y1='62.0' x2='142.0' y2='62.0'
        style='stroke-width:2.0;stroke:rgb(0,0,0);stroke-opacity:1.0;stroke-linecap:square;stroke-miterlimit:10.0'/>
  <ellipse cx='122.0' cy='82.0' rx='5.0' ry='5.0' style='fill:rgb(0,0,0)'/>
  <line x1='122.0' y1='82.0' x2='122.0' y2='102.0'
        style='stroke-width:2.0;stroke:rgb(0,0,0);stroke-opacity:1.0;stroke-linecap:square;stroke-miterlimit:10.0'/>
  <line x1='122.0' y1='82.0' x2='142.0' y2='82.0'
        style='stroke-width:2.0;stroke:rgb(0,0,0);stroke-opacity:1.0;stroke-linecap:square;stroke-miterlimit:10.0'/>
  <ellipse cx='122.0' cy='102.0' rx='5.0' ry='5.0' style='fill:rgb(0,0,0)'/>
  <line x1='122.0' y1='102.0' x2='122.0' y2='122.0'
        style='stroke-width:2.0;stroke:rgb(0,0,0);stroke-opacity:1.0;stroke-linecap:square;stroke-miterlimit:10.0'/>
  <ellipse cx='122.0' cy='122.0' rx='5.0' ry='5.0' style='fill:rgb(0,0,0)'/>
  <ellipse cx='122.0' cy='142.0' rx='5.0' ry='5.0' style='fill:rgb(0,0,0)'/>
  <line x1='122.0' y1='142.0' x2='122.0' y2='162.0'
        style='stroke-width:2.0;stroke:rgb(0,0,0);stroke-opacity:1.0;stroke-linecap:square;stroke-miterlimit:10.0'/>
  <line x1='122.0' y1='142.0' x2='142.0' y2='142.0'
        style='stroke-width:2.0;stroke:rgb(0,0,0);stroke-opacity:1.0;stroke-linecap:square;stroke-miterlimit:10.0'/>
  <ellipse cx='122.0' cy='162.0' rx='5.0' ry='5.0' style='fill:rgb(0,0,0)'/>
  <line x1='122.0' y1='162.0' x2='122.0' y2='182.0'
        style='stroke-width:2.0;stroke:rgb(0,0,0);stroke-opacity:1.0;stroke-linecap:square;stroke-miterlimit:10.0'/>
  <ellipse cx='122.0' cy='182.0' rx='5.0' ry='5.0' style='fill:rgb(0,0,0)'/>
  <line x1='122.0' y1='182.0' x2='122.0' y2='202.0'
        style='stroke-width:2.0;stroke:rgb(0,0,0);stroke-opacity:1.0;stroke-linecap:square;stroke-miterlimit:10.0'/>
  <line x1='122.0' y1='182.0' x2='142.0' y2='182.0'
        style='stroke-width:2.0;stroke:rgb(0,0,0);stroke-opacity:1.0;stroke-linecap:square;stroke-miterlimit:10.0'/>
  <ellipse cx='122.0' cy='202.0' rx='5.0' ry='5.0' style='fill:rgb(0,0,0)'/>
  <line x1='122.0' y1='202.0' x2='142.0' y2='202.0'
        style='stroke-width:2.0;stroke:rgb(0,0,0);stroke-opacity:1.0;stroke-linecap:square;stroke-miterlimit:10.0'/>
  <ellipse cx='142.0' cy='22.0' rx='5.0' ry='5.0' style='fill:rgb(0,0,0)'/>
  <line x1='142.0' y1='22.0' x2='142.0' y2='42.0'
        style='stroke-width:2.0;stroke:rgb(0,0,0);stroke-opacity:1.0;stroke-linecap:square;stroke-miterlimit:10.0'/>
  <ellipse cx='142.0' cy='42.0' rx='5.0' ry='5.0' style='fill:rgb(0,0,0)'/>
  <line x1='142.0' y1='42.0' x2='162.0' y2='42.0'
        style='stroke-width:2.0;stroke:rgb(0,0,0);stroke-opacity:1.0;stroke-linecap:square;stroke-miterlimit:10.0'/>
  <ellipse cx='142.0' cy='62.0' rx='5.0' ry='5.0' style='fill:rgb(0,0,0)'/>
  <line x1='142.0' y1='62.0' x2='162.0' y2='62.0'
        style='stroke-width:2.0;stroke:rgb(0,0,0);stroke-opacity:1.0;stroke-linecap:square;stroke-miterlimit:10.0'/>
  <ellipse cx='142.0' cy='82.0' rx='5.0' ry='5.0' style='fill:rgb(0,0,0)'/>
  <line x1='142.0' y1='82.0' x2='142.0' y2='102.0'
        style='stroke-width:2.0;stroke:rgb(0,0,0);stroke-opacity:1.0;stroke-linecap:square;stroke-miterlimit:10.0'/>
  <ellipse cx='142.0' cy='102.0' rx='5.0' ry='5.0' style='fill:rgb(0,0,0)'/>
  <ellipse cx='142.0' cy='122.0' rx='5.0' ry='5.0' style='fill:rgb(0,0,0)'/>
  <line x1='142.0' y1='122.0' x2='142.0' y2='142.0'
        style='stroke-width:2.0;stroke:rgb(0,0,0);stroke-opacity:1.0;stroke-linecap:square;stroke-miterlimit:10.0'/>
  <ellipse cx='142.0' cy='142.0' rx='5.0' ry='5.0' style='fill:rgb(0,0,0)'/>
  <line x1='142.0' y1='142.0' x2='162.0' y2='142.0'
        style='stroke-width:2.0;stroke:rgb(0,0,0);stroke-opacity:1.0;stroke-linecap:square;stroke-miterlimit:10.0'/>
  <ellipse cx='142.0' cy='162.0' rx='5.0' ry='5.0' style='fill:rgb(0,0,0)'/>
  <line x1='142.0' y1='162.0' x2='162.0' y2='162.0'
        style='stroke-width:2.0;stroke:rgb(0,0,0);stroke-opacity:1.0;stroke-linecap:square;stroke-miterlimit:10.0'/>
  <ellipse cx='142.0' cy='182.0' rx='5.0' ry='5.0' style='fill:rgb(0,0,0)'/>
  <ellipse cx='142.0' cy='202.0' rx='5.0' ry='5.0' style='fill:rgb(0,0,0)'/>
  <ellipse cx='162.0' cy='22.0' rx='5.0' ry='5.0' style='fill:rgb(0,0,0)'/>
  <line x1='162.0' y1='22.0' x2='182.0' y2='22.0'
        style='stroke-width:2.0;stroke:rgb(0,0,0);stroke-opacity:1.0;stroke-linecap:square;stroke-miterlimit:10.0'/>
  <ellipse cx='162.0' cy='42.0' rx='5.0' ry='5.0' style='fill:rgb(0,0,0)'/>
  <line x1='162.0' y1='42.0' x2='162.0' y2='62.0'
        style='stroke-width:2.0;stroke:rgb(0,0,0);stroke-opacity:1.0;stroke-linecap:square;stroke-miterlimit:10.0'/>
  <line x1='162.0' y1='42.0' x2='182.0' y2='42.0'
        style='stroke-width:2.0;stroke:rgb(0,0,0);stroke-opacity:1.0;stroke-linecap:square;stroke-miterlimit:10.0'/>
  <ellipse cx='162.0' cy='62.0' rx='5.0' ry='5.0' style='fill:rgb(0,0,0)'/>
  <line x1='162.0' y1='62.0' x2='162.0' y2='82.0'
        style='stroke-width:2.0;stroke:rgb(0,0,0);stroke-opacity:1.0;stroke-linecap:square;stroke-miterlimit:10.0'/>
  <line x1='162.0' y1='62.0' x2='182.0' y2='62.0'
        style='stroke-width:2.0;stroke:rgb(0,0,0);stroke-opacity:1.0;stroke-linecap:square;stroke-miterlimit:10.0'/>
  <ellipse cx='162.0' cy='82.0' rx='5.0' ry='5.0' style='fill:rgb(0,0,0)'/>
  <line x1='162.0' y1='82.0' x2='162.0' y2='102.0'
        style='stroke-width:2.0;stroke:rgb(0,0,0);stroke-opacity:1.0;stroke-linecap:square;stroke-miterlimit:10.0'/>
  <ellipse cx='162.0' cy='102.0' rx='5.0' ry='5.0' style='fill:rgb(0,0,0)'/>
  <ellipse cx='162.0' cy='122.0' rx='5.0' ry='5.0' style='fill:rgb(0,0,0)'/>
  <line x1='162.0' y1='122.0' x2='162.0' y2='142.0'
        style='stroke-width:2.0;stroke:rgb(0,0,0);stroke-opacity:1.0;stroke-linecap:square;stroke-miterlimit:10.0'/>
  <line x1='162.0' y1='122.0' x2='182.0' y2='122.0'
        style='stroke-width:2.0;stroke:rgb(0,0,0);stroke-opacity:1.0;stroke-linecap:square;stroke-miterlimit:10.0'/>
  <ellipse cx='162.0' cy='142.0' rx='5.0' ry='5.0' style='fill:rgb(0,0,0)'/>
  <line x1='162.0' y1='142.0' x2='162.0' y2='162.0'
        style='stroke-width:2.0;stroke:rgb(0,0,0);stroke-opacity:1.0;stroke-linecap:square;stroke-miterlimit:10.0'/>
  <line x1='162.0' y1='142.0' x2='182.0' y2='142.0'
        style='stroke-width:2.0;stroke:rgb(0,0,0);stroke-opacity:1.0;stroke-linecap:square;stroke-miterlimit:10.0'/>
  <ellipse cx='162.0' cy='162.0' rx='5.0' ry='5.0' style='fill:rgb(0,0,0)'/>
  <line x1='162.0' y1='162.0' x2='162.0' y2='182.0'
        style='stroke-width:2.0;stroke:rgb(0,0,0);stroke-opacity:1.0;stroke-linecap:square;stroke-miterlimit:10.0'/>
  <line x1='162.0' y1='162.0' x2='182.0' y2='162.0'
        style='stroke-width:2.0;stroke:rgb(0,0,0);stroke-opacity:1.0;stroke-linecap:square;stroke-miterlimit:10.0'/>
  <ellipse cx='162.0' cy='182.0' rx='5.0' ry='5.0' style='fill:rgb(0,0,0)'/>
  <line x1='162.0' y1='182.0' x2='162.0' y2='202.0'
        style='stroke-width:2.0;stroke:rgb(0,0,0);stroke-opacity:1.0;stroke-linecap:square;stroke-miterlimit:10.0'/>
  <line x1='162.0' y1='182.0' x2='182.0' y2='182.0'
        style='stroke-width:2.0;stroke:rgb(0,0,0);stroke-opacity:1.0;stroke-linecap:square;stroke-miterlimit:10.0'/>
  <ellipse cx='162.0' cy='202.0' rx='5.0' ry='5.0' style='fill:rgb(0,0,0)'/>
  <ellipse cx='182.0' cy='22.0' rx='5.0' ry='5.0' style='fill:rgb(0,0,0)'/>
  <line x1='182.0' y1='22.0' x2='182.0' y2='42.0'
        style='stroke-width:2.0;stroke:rgb(0,0,0);stroke-opacity:1.0;stroke-linecap:square;stroke-miterlimit:10.0'/>
  <line x1='182.0' y1='22.0' x2='202.0' y2='22.0'
        style='stroke-width:2.0;stroke:rgb(0,0,0);stroke-opacity:1.0;stroke-linecap:square;stroke-miterlimit:10.0'/>
  <ellipse cx='182.0' cy='42.0' rx='5.0' ry='5.0' style='fill:rgb(0,0,0)'/>
  <line x1='182.0' y1='42.0' x2='202.0' y2='42.0'
        style='stroke-width:2.0;stroke:rgb(0,0,0);stroke-opacity:1.0;stroke-linecap:square;stroke-miterlimit:10.0'/>
  <ellipse cx='182.0' cy='62.0' rx='5.0' ry='5.0' style='fill:rgb(0,0,0)'/>
  <line x1='182.0' y1='62.0' x2='202.0' y2='62.0'
        style='stroke-width:2.0;stroke:rgb(0,0,0);stroke-opacity:1.0;stroke-linecap:square;stroke-miterlimit:10.0'/>
  <ellipse cx='182.0' cy='82.0' rx='5.0' ry='5.0' style='fill:rgb(0,0,0)'/>
  <line x1='182.0' y1='82.0' x2='182.0' y2='102.0'
        style='stroke-width:2.0;stroke:rgb(0,0,0);stroke-opacity:1.0;stroke-linecap:square;stroke-miterlimit:10.0'/>
  <ellipse cx='182.0' cy='102.0' rx='5.0' ry='5.0' style='fill:rgb(0,0,0)'/>
  <line x1='182.0' y1='102.0' x2='182.0' y2='122.0'
        style='stroke-width:2.0;stroke:rgb(0,0,0);stroke-opacity:1.0;stroke-linecap:square;stroke-miterlimit:10.0'/>
  <ellipse cx='182.0' cy='122.0' rx='5.0' ry='5.0' style='fill:rgb(0,0,0)'/>
  <line x1='182.0' y1='122.0' x2='202.0' y2='122.0'
        style='stroke-width:2.0;stroke:rgb(0,0,0);stroke-opacity:1.0;stroke-linecap:square;stroke-miterlimit:10.0'/>
  <ellipse cx='182.0' cy='142.0' rx='5.0' ry='5.0' style='fill:rgb(0,0,0)'/>
  <ellipse cx='182.0' cy='162.0' rx='5.0' ry='5.0' style='fill:rgb(0,0,0)'/>
  <ellipse cx='182.0' cy='182.0' rx='5.0' ry='5.0' style='fill:rgb(0,0,0)'/>
  <line x1='182.0' y1='182.0' x2='182.0' y2='202.0'
        style='stroke-width:2.0;stroke:rgb(0,0,0);stroke-opacity:1.0;stroke-linecap:square;stroke-miterlimit:10.0'/>
  <line x1='182.0' y1='182.0' x2='202.0' y2='182.0'
        style='stroke-width:2.0;stroke:rgb(0,0,0);stroke-opacity:1.0;stroke-linecap:square;stroke-miterlimit:10.0'/>
  <ellipse cx='182.0' cy='202.0' rx='5.0' ry='5.0' style='fill:rgb(0,0,0)'/>
  <line x1='182.0' y1='202.0' x2='202.0' y2='202.0'
        style='stroke-width:2.0;stroke:rgb(0,0,0);stroke-opacity:1.0;stroke-linecap:square;stroke-miterlimit:10.0'/>
  <ellipse cx='202.0' cy='22.0' rx='5.0' ry='5.0' style='fill:rgb(0,0,0)'/>
  <ellipse cx='202.0' cy='42.0' rx='5.0' ry='5.0' style='fill:rgb(0,0,0)'/>
  <ellipse cx='202.0' cy='62.0' rx='5.0' ry='5.0' style='fill:rgb(0,0,0)'/>
  <line x1='202.0' y1='62.0' x2='202.0' y2='82.0'
        style='stroke-width:2.0;stroke:rgb(0,0,0);stroke-opacity:1.0;stroke-linecap:square;stroke-miterlimit:10.0'/>
  <ellipse cx='202.0' cy='82.0' rx='5.0' ry='5.0' style='fill:rgb(0,0,0)'/>
  <ellipse cx='202.0' cy='102.0' rx='5.0' ry='5.0' style='fill:rgb(0,0,0)'/>
  <line x1='202.0' y1='102.0' x2='202.0' y2='122.0'
        style='stroke-width:2.0;stroke:rgb(0,0,0);stroke-opacity:1.0;stroke-linecap:square;stroke-miterlimit:10.0'/>
  <ellipse cx='202.0' cy='122.0' rx='5.0' ry='5.0' style='fill:rgb(0,0,0)'/>
  <line x1='202.0' y1='122.0' x2='202.0' y2='142.0'
        style='stroke-width:2.0;stroke:rgb(0,0,0);stroke-opacity:1.0;stroke-linecap:square;stroke-miterlimit:10.0'/>
  <ellipse cx='202.0' cy='142.0' rx='5.0' ry='5.0' style='fill:rgb(0,0,0)'/>
  <ellipse cx='202.0' cy='162.0' rx='5.0' ry='5.0' style='fill:rgb(0,0,0)'/>
  <line x1='202.0' y1='162.0' x2='202.0' y2='182.0'
        style='stroke-width:2.0;stroke:rgb(0,0,0);stroke-opacity:1.0;stroke-linecap:square;stroke-miterlimit:10.0'/>
  <ellipse cx='202.0' cy='182.0' rx='5.0' ry='5.0' style='fill:rgb(0,0,0)'/>
  <ellipse cx='202.0' cy='202.0' rx='5.0' ry='5.0' style='fill:rgb(0,0,0)'/>
</svg>
